<svg xmlns="http://www.w3.org/2000/svg" width="20" height="20"
     viewBox="0 0 50 50" version="1.1">
    <path d="m41.1 23c-0.6 0-1 0.4-1 1v10.7l-25.6-0.1c0 0 0-2 0-2.8 0-0.8-0.7-1-1-0.6l-3.5 3.5c-0.6 0.6-0.6 1.3 0 2l3.4 3.4c0.4 0.4 1.1 0.2 1-0.6l0-2.9c0 0 20.8 0.1 26.6 0 0.6 0 1-0.4 1-1v-11.7c0-0.6-0.4-1-1-1zM9 26.9 9 26.9 9 26.9 9 26.9"/>
    <path d="m9 26.9c0.6 0 1-0.4 1-1v-10.7l25.6 0.1c0 0 0 2 0 2.8 0 0.8 0.7 1 1 0.6l3.5-3.5c0.6-0.6 0.6-1.3 0-2l-3.4-3.4c-0.4-0.4-1.1-0.2-1 0.6l0 2.9c0 0-20.8-0.1-26.6 0-0.6 0-1 0.4-1 1v11.7c0 0.6 0.4 1 1 1z"/>
</svg>
